================================================================================
| EXCITING NITROGEN-13 started                                                 =
| version hash id: a73bba6f2eed5eb4024a9cc4f72599c3faa5cd12                    =
|                                                                              =
|                                                                              =
| Date (DD-MM-YYYY) : 29-10-2019                                               =
| Time (hh:mm:ss)   : 10:32:10                                                 =
|                                                                              =
| All units are atomic (Hartree, Bohr, etc.)                                   =
================================================================================
 
********************************************************************************
* Ground-state run starting from atomic densities                              *
********************************************************************************
 
++++++++++++++++++++++++++++++++++++++++++++++++++++++++++++++++++++++++++++++++
+ Starting initialization                                                      +
++++++++++++++++++++++++++++++++++++++++++++++++++++++++++++++++++++++++++++++++
 
 Lattice vectors (cartesian) :
      3.3731600000      3.3731600000      0.0000000000
      3.3731600000      0.0000000000      3.3731600000
      0.0000000000      3.3731600000      3.3731600000
 
 Reciprocal lattice vectors (cartesian) :
      0.9313500260      0.9313500260     -0.9313500260
      0.9313500260     -0.9313500260      0.9313500260
     -0.9313500260      0.9313500260      0.9313500260
 
 Unit cell volume                           :      76.7610347959
 Brillouin zone volume                      :       3.2314599992
 
 Species :    1 (C)
     parameters loaded from                 :    C.xml
     name                                   :    carbon
     nuclear charge                         :      -6.00000000
     electronic charge                      :       6.00000000
     atomic mass                            :   21894.16673000
     muffin-tin radius                      :       1.25000000
     # of radial points in muffin-tin       :     250
 
     atomic positions (lattice) :
       1 :   0.00000000  0.00000000  0.00000000
       2 :   0.25000000  0.25000000  0.25000000
 
 Total number of atoms per unit cell        :       2
 
 Spin treatment                             :    spin-unpolarised
 
 Number of Bravais lattice symmetries       :      48
 Number of crystal symmetries               :      48
 
 k-point grid                               :       4    4    4
 Total number of k-points                   :       8
 k-point set is reduced with crystal symmetries
 
 R^MT_min * |G+k|_max (rgkmax)              :       7.00000000
 Species with R^MT_min                      :       1 (C)
 Maximum |G+k| for APW functions            :       5.60000000
 Maximum |G| for potential and density      :      12.00000000
 
 G-vector grid sizes                        :      20    20    20
 Total number of G-vectors                  :    2229
 
 Maximum angular momentum used for
     APW functions                          :       8
     computing H and O matrix elements      :       8
     potential and density                  :       8
     inner part of muffin-tin               :       2
 
 Total nuclear charge                       :     -12.00000000
 Total electronic charge                    :      12.00000000
 Total core charge                          :       4.00000000
 Total valence charge                       :       8.00000000
 
 Number of empty states                     :       5
 Total number of valence states             :      10
 
 Maximum Hamiltonian size                   :     267
 Maximum number of plane-waves              :     259
 Total number of local-orbitals             :       8
 
 Exchange-correlation type                  :      22
     PBEsol, Phys. Rev. Lett. 100, 136406 (2008)
     Generalised gradient approximation (GGA)
 
 Smearing scheme                            :    Gaussian
 Smearing width                             :       0.00100000
 
 Using multisecant Broyden potential mixing
 
++++++++++++++++++++++++++++++++++++++++++++++++++++++++++++++++++++++++++++++++
+ Ending initialization                                                        +
++++++++++++++++++++++++++++++++++++++++++++++++++++++++++++++++++++++++++++++++
 
********************************************************************************
* Groundstate module started                                                   *
********************************************************************************
 Output level for this task is set to normal
 
++++++++++++++++++++++++++++++++++++++++++++++++++++++++++++++++++++++++++++++++
+ Self-consistent loop started                                                 +
++++++++++++++++++++++++++++++++++++++++++++++++++++++++++++++++++++++++++++++++
 Density and potential initialised from atomic data
 
 
++++++++++++++++++++++++++++++++++++++++++++++++++++++++++++++++++++++++++++++++
+ SCF iteration number :    1                                                  +
++++++++++++++++++++++++++++++++++++++++++++++++++++++++++++++++++++++++++++++++
 Total energy                               :       -76.82880551
 _______________________________________________________________
 Fermi energy                               :         0.48339223
 Kinetic energy                             :        74.99717874
 Coulomb energy                             :      -141.24627373
 Exchange energy                            :       -10.08140178
 Correlation energy                         :        -0.49830873
 
 DOS at Fermi energy (states/Ha/cell)       :         0.00000000
 
 Electron charges :
     core                                   :         4.00000000
     core leakage                           :         0.00086593
     valence                                :         8.00000000
     interstitial                           :         4.37953662
     charge in muffin-tin spheres :
                  atom     1     C          :         3.81023169
                  atom     2     C          :         3.81023169
     total charge in muffin-tins            :         7.62046338
     total charge                           :        12.00000000
 
 Estimated fundamental gap                  :         0.18359776
        valence-band maximum at    1      0.0000  0.0000  0.0000
     conduction-band minimum at    4      0.2500  0.2500  0.0000
 
 Wall time (seconds)                        :         1.29
 
++++++++++++++++++++++++++++++++++++++++++++++++++++++++++++++++++++++++++++++++
+ SCF iteration number :    2                                                  +
++++++++++++++++++++++++++++++++++++++++++++++++++++++++++++++++++++++++++++++++
 Total energy                               :       -76.50967833
 _______________________________________________________________
 Fermi energy                               :         0.49586575
 Kinetic energy                             :        75.17432086
 Coulomb energy                             :      -141.12085810
 Exchange energy                            :       -10.06372086
 Correlation energy                         :        -0.49942024
 
 DOS at Fermi energy (states/Ha/cell)       :         0.00000000
 
 Electron charges :
     core                                   :         4.00000000
     core leakage                           :         0.00087139
     valence                                :         8.00000000
     interstitial                           :         4.41607429
     charge in muffin-tin spheres :
                  atom     1     C          :         3.79196285
                  atom     2     C          :         3.79196285
     total charge in muffin-tins            :         7.58392571
     total charge                           :        12.00000000
 
 Estimated fundamental gap                  :         0.17620985
        valence-band maximum at    1      0.0000  0.0000  0.0000
     conduction-band minimum at    4      0.2500  0.2500  0.0000
 
 Wall time (seconds)                        :         2.07
 
 RMS change in effective potential (target) :   2.79152      ( 0.100000E-05)
 Absolute change in total energy   (target) :  0.319127      ( 0.100000E-05)
 Charge distance                   (target) :  0.718375E-02  ( 0.100000E-04)
 
++++++++++++++++++++++++++++++++++++++++++++++++++++++++++++++++++++++++++++++++
+ SCF iteration number :    3                                                  +
++++++++++++++++++++++++++++++++++++++++++++++++++++++++++++++++++++++++++++++++
 Total energy                               :       -76.27592472
 _______________________________________________________________
 Fermi energy                               :         0.50511382
 Kinetic energy                             :        75.30421524
 Coulomb energy                             :      -141.02927308
 Exchange energy                            :       -10.05059472
 Correlation energy                         :        -0.50027216
 
 DOS at Fermi energy (states/Ha/cell)       :         0.00000000
 
 Electron charges :
     core                                   :         4.00000000
     core leakage                           :         0.00087497
     valence                                :         8.00000000
     interstitial                           :         4.44379348
     charge in muffin-tin spheres :
                  atom     1     C          :         3.77810326
                  atom     2     C          :         3.77810326
     total charge in muffin-tins            :         7.55620652
     total charge                           :        12.00000000
 
 Estimated fundamental gap                  :         0.17050734
        valence-band maximum at    1      0.0000  0.0000  0.0000
     conduction-band minimum at    4      0.2500  0.2500  0.0000
 
 Wall time (seconds)                        :         2.88
 
 RMS change in effective potential (target) :   2.04523      ( 0.100000E-05)
 Absolute change in total energy   (target) :  0.233754      ( 0.100000E-05)
 Charge distance                   (target) :  0.549132E-02  ( 0.100000E-04)
 
++++++++++++++++++++++++++++++++++++++++++++++++++++++++++++++++++++++++++++++++
+ SCF iteration number :    4                                                  +
++++++++++++++++++++++++++++++++++++++++++++++++++++++++++++++++++++++++++++++++
 Total energy                               :       -76.01559277
 _______________________________________________________________
 Fermi energy                               :         0.51768893
 Kinetic energy                             :        75.46071171
 Coulomb energy                             :      -140.94099027
 Exchange energy                            :       -10.03375185
 Correlation energy                         :        -0.50156236
 
 DOS at Fermi energy (states/Ha/cell)       :         0.00000000
 
 Electron charges :
     core                                   :         4.00000000
     core leakage                           :         0.00087272
     valence                                :         8.00000000
     interstitial                           :         4.48416036
     charge in muffin-tin spheres :
                  atom     1     C          :         3.75791982
                  atom     2     C          :         3.75791982
     total charge in muffin-tins            :         7.51583964
     total charge                           :        12.00000000
 
 Estimated fundamental gap                  :         0.16131687
        valence-band maximum at    1      0.0000  0.0000  0.0000
     conduction-band minimum at    4      0.2500  0.2500  0.0000
 
 Wall time (seconds)                        :         3.65
 
 RMS change in effective potential (target) :  0.499622E-01  ( 0.100000E-05)
 Absolute change in total energy   (target) :  0.260332      ( 0.100000E-05)
 Charge distance                   (target) :  0.841775E-02  ( 0.100000E-04)
 
++++++++++++++++++++++++++++++++++++++++++++++++++++++++++++++++++++++++++++++++
+ SCF iteration number :    5                                                  +
++++++++++++++++++++++++++++++++++++++++++++++++++++++++++++++++++++++++++++++++
 Total energy                               :       -75.83207747
 _______________________________________________________________
 Fermi energy                               :         0.52344721
 Kinetic energy                             :        75.55141216
 Coulomb energy                             :      -140.85693410
 Exchange energy                            :       -10.02448295
 Correlation energy                         :        -0.50207258
 
 DOS at Fermi energy (states/Ha/cell)       :         0.00000000
 
 Electron charges :
     core                                   :         4.00000000
     core leakage                           :         0.00087911
     valence                                :         8.00000000
     interstitial                           :         4.50137617
     charge in muffin-tin spheres :
                  atom     1     C          :         3.74931192
                  atom     2     C          :         3.74931192
     total charge in muffin-tins            :         7.49862383
     total charge                           :        12.00000000
 
 Estimated fundamental gap                  :         0.15823498
        valence-band maximum at    1      0.0000  0.0000  0.0000
     conduction-band minimum at    4      0.2500  0.2500  0.0000
 
 Wall time (seconds)                        :         4.26
 
 RMS change in effective potential (target) :  0.255043E-01  ( 0.100000E-05)
 Absolute change in total energy   (target) :  0.183515      ( 0.100000E-05)
 Charge distance                   (target) :  0.323304E-02  ( 0.100000E-04)
 
++++++++++++++++++++++++++++++++++++++++++++++++++++++++++++++++++++++++++++++++
+ SCF iteration number :    6                                                  +
++++++++++++++++++++++++++++++++++++++++++++++++++++++++++++++++++++++++++++++++
 Total energy                               :       -75.88787042
 _______________________________________________________________
 Fermi energy                               :         0.52172999
 Kinetic energy                             :        75.52435838
 Coulomb energy                             :      -140.88295873
 Exchange energy                            :       -10.02735649
 Correlation energy                         :        -0.50191359
 
 DOS at Fermi energy (states/Ha/cell)       :         0.00000000
 
 Electron charges :
     core                                   :         4.00000000
     core leakage                           :         0.00087715
     valence                                :         8.00000000
     interstitial                           :         4.49605300
     charge in muffin-tin spheres :
                  atom     1     C          :         3.75197350
                  atom     2     C          :         3.75197350
     total charge in muffin-tins            :         7.50394700
     total charge                           :        12.00000000
 
 Estimated fundamental gap                  :         0.15919992
        valence-band maximum at    1      0.0000  0.0000  0.0000
     conduction-band minimum at    4      0.2500  0.2500  0.0000
 
 Wall time (seconds)                        :         5.04
 
 RMS change in effective potential (target) :  0.373611E-03  ( 0.100000E-05)
 Absolute change in total energy   (target) :  0.557929E-01  ( 0.100000E-05)
 Charge distance                   (target) :  0.100381E-02  ( 0.100000E-04)
 
++++++++++++++++++++++++++++++++++++++++++++++++++++++++++++++++++++++++++++++++
+ SCF iteration number :    7                                                  +
++++++++++++++++++++++++++++++++++++++++++++++++++++++++++++++++++++++++++++++++
 Total energy                               :       -75.88923875
 _______________________________________________________________
 Fermi energy                               :         0.52168733
 Kinetic energy                             :        75.52365591
 Coulomb energy                             :      -140.88356389
 Exchange energy                            :       -10.02742055
 Correlation energy                         :        -0.50191022
 
 DOS at Fermi energy (states/Ha/cell)       :         0.00000000
 
 Electron charges :
     core                                   :         4.00000000
     core leakage                           :         0.00087710
     valence                                :         8.00000000
     interstitial                           :         4.49593482
     charge in muffin-tin spheres :
                  atom     1     C          :         3.75203259
                  atom     2     C          :         3.75203259
     total charge in muffin-tins            :         7.50406518
     total charge                           :        12.00000000
 
 Estimated fundamental gap                  :         0.15921931
        valence-band maximum at    1      0.0000  0.0000  0.0000
     conduction-band minimum at    4      0.2500  0.2500  0.0000
 
 Wall time (seconds)                        :         5.73
 
 RMS change in effective potential (target) :  0.712075E-04  ( 0.100000E-05)
 Absolute change in total energy   (target) :  0.136833E-02  ( 0.100000E-05)
 Charge distance                   (target) :  0.215557E-04  ( 0.100000E-04)
 
++++++++++++++++++++++++++++++++++++++++++++++++++++++++++++++++++++++++++++++++
+ SCF iteration number :    8                                                  +
++++++++++++++++++++++++++++++++++++++++++++++++++++++++++++++++++++++++++++++++
 Total energy                               :       -75.88911817
 _______________________________________________________________
 Fermi energy                               :         0.52169059
 Kinetic energy                             :        75.52371238
 Coulomb energy                             :      -140.88350538
 Exchange energy                            :       -10.02741466
 Correlation energy                         :        -0.50191052
 
 DOS at Fermi energy (states/Ha/cell)       :         0.00000000
 
 Electron charges :
     core                                   :         4.00000000
     core leakage                           :         0.00087711
     valence                                :         8.00000000
     interstitial                           :         4.49594503
     charge in muffin-tin spheres :
                  atom     1     C          :         3.75202748
                  atom     2     C          :         3.75202748
     total charge in muffin-tins            :         7.50405497
     total charge                           :        12.00000000
 
 Estimated fundamental gap                  :         0.15921769
        valence-band maximum at    1      0.0000  0.0000  0.0000
     conduction-band minimum at    4      0.2500  0.2500  0.0000
 
 Wall time (seconds)                        :         6.26
 
 RMS change in effective potential (target) :  0.474028E-05  ( 0.100000E-05)
 Absolute change in total energy   (target) :  0.120576E-03  ( 0.100000E-05)
 Charge distance                   (target) :  0.184240E-05  ( 0.100000E-04)
 
++++++++++++++++++++++++++++++++++++++++++++++++++++++++++++++++++++++++++++++++
+ SCF iteration number :    9                                                  +
++++++++++++++++++++++++++++++++++++++++++++++++++++++++++++++++++++++++++++++++
 Total energy                               :       -75.88911624
 _______________________________________________________________
 Fermi energy                               :         0.52169073
 Kinetic energy                             :        75.52371411
 Coulomb energy                             :      -140.88350526
 Exchange energy                            :       -10.02741457
 Correlation energy                         :        -0.50191053
 
 DOS at Fermi energy (states/Ha/cell)       :         0.00000000
 
 Electron charges :
     core                                   :         4.00000000
     core leakage                           :         0.00087711
     valence                                :         8.00000000
     interstitial                           :         4.49594533
     charge in muffin-tin spheres :
                  atom     1     C          :         3.75202733
                  atom     2     C          :         3.75202733
     total charge in muffin-tins            :         7.50405467
     total charge                           :        12.00000000
 
 Estimated fundamental gap                  :         0.15921761
        valence-band maximum at    1      0.0000  0.0000  0.0000
     conduction-band minimum at    4      0.2500  0.2500  0.0000
 
 Wall time (seconds)                        :         6.86
 
 RMS change in effective potential (target) :  0.639460E-06  ( 0.100000E-05)
 Absolute change in total energy   (target) :  0.193285E-05  ( 0.100000E-05)
 Charge distance                   (target) :  0.667218E-07  ( 0.100000E-04)
 
++++++++++++++++++++++++++++++++++++++++++++++++++++++++++++++++++++++++++++++++
+ SCF iteration number :   10                                                  +
++++++++++++++++++++++++++++++++++++++++++++++++++++++++++++++++++++++++++++++++
 Total energy                               :       -75.88911690
 _______________________________________________________________
 Fermi energy                               :         0.52169070
 Kinetic energy                             :        75.52371368
 Coulomb energy                             :      -140.88350546
 Exchange energy                            :       -10.02741460
 Correlation energy                         :        -0.50191052
 
 DOS at Fermi energy (states/Ha/cell)       :         0.00000000
 
 Electron charges :
     core                                   :         4.00000000
     core leakage                           :         0.00087711
     valence                                :         8.00000000
     interstitial                           :         4.49594525
     charge in muffin-tin spheres :
                  atom     1     C          :         3.75202737
                  atom     2     C          :         3.75202737
     total charge in muffin-tins            :         7.50405475
     total charge                           :        12.00000000
 
 Estimated fundamental gap                  :         0.15921763
        valence-band maximum at    1      0.0000  0.0000  0.0000
     conduction-band minimum at    4      0.2500  0.2500  0.0000
 
 Wall time (seconds)                        :         7.43
 
 RMS change in effective potential (target) :  0.648568E-07  ( 0.100000E-05)
 Absolute change in total energy   (target) :  0.660234E-06  ( 0.100000E-05)
 Charge distance                   (target) :  0.167794E-07  ( 0.100000E-04)
 
++++++++++++++++++++++++++++++++++++++++++++++++++++++++++++++++++++++++++++++++
+ SCF iteration number :   11                                                  +
++++++++++++++++++++++++++++++++++++++++++++++++++++++++++++++++++++++++++++++++
 Total energy                               :       -75.88911689
 _______________________________________________________________
 Fermi energy                               :         0.52169070
 Kinetic energy                             :        75.52371369
 Coulomb energy                             :      -140.88350546
 Exchange energy                            :       -10.02741460
 Correlation energy                         :        -0.50191052
 
 DOS at Fermi energy (states/Ha/cell)       :         0.00000000
 
 Electron charges :
     core                                   :         4.00000000
     core leakage                           :         0.00087711
     valence                                :         8.00000000
     interstitial                           :         4.49594525
     charge in muffin-tin spheres :
                  atom     1     C          :         3.75202737
                  atom     2     C          :         3.75202737
     total charge in muffin-tins            :         7.50405475
     total charge                           :        12.00000000
 
 Estimated fundamental gap                  :         0.15921763
        valence-band maximum at    1      0.0000  0.0000  0.0000
     conduction-band minimum at    4      0.2500  0.2500  0.0000
 
 Wall time (seconds)                        :         8.15
 
 RMS change in effective potential (target) :  0.646479E-07  ( 0.100000E-05)
 Absolute change in total energy   (target) :  0.106295E-07  ( 0.100000E-05)
 Charge distance                   (target) :  0.215079E-09  ( 0.100000E-04)
                                                                                
++++++++++++++++++++++++++++++++++++++++++++++++++++++++++++++++++++++++++++++++
| Convergency criteria checked for the last 2 iterations                       +
| Convergence targets achieved. Performing final SCF iteration                 +
++++++++++++++++++++++++++++++++++++++++++++++++++++++++++++++++++++++++++++++++
 Total energy                               :       -75.88911688
 _______________________________________________________________
 Fermi energy                               :         0.52169070
 Kinetic energy                             :        75.52371369
 Coulomb energy                             :      -140.88350545
 Exchange energy                            :       -10.02741460
 Correlation energy                         :        -0.50191052
 
 DOS at Fermi energy (states/Ha/cell)       :         0.00000000
 
 Electron charges :
     core                                   :         4.00000000
     core leakage                           :         0.00087711
     valence                                :         8.00000000
     interstitial                           :         4.49594525
     charge in muffin-tin spheres :
                  atom     1     C          :         3.75202737
                  atom     2     C          :         3.75202737
     total charge in muffin-tins            :         7.50405475
     total charge                           :        12.00000000
 
 Estimated fundamental gap                  :         0.15921763
        valence-band maximum at    1      0.0000  0.0000  0.0000
     conduction-band minimum at    4      0.2500  0.2500  0.0000
 
++++++++++++++++++++++++++++++++++++++++++++++++++++++++++++++++++++++++++++++++
+ Self-consistent loop stopped                                                 +
++++++++++++++++++++++++++++++++++++++++++++++++++++++++++++++++++++++++++++++++
 STATE.OUT is written
 
********************************************************************************
* Groundstate module stopped                                                   *
********************************************************************************
 
 Total time spent (seconds)                 :         7.87
================================================================================
| EXCITING NITROGEN-13 stopped                                                 =
================================================================================
