<?xml version="1.0" encoding="UTF-8" standalone="no"?>
<!-- Created with Inkscape (http://www.inkscape.org/) -->

<svg
   xmlns:dc="http://purl.org/dc/elements/1.1/"
   xmlns:cc="http://creativecommons.org/ns#"
   xmlns:rdf="http://www.w3.org/1999/02/22-rdf-syntax-ns#"
   xmlns:svg="http://www.w3.org/2000/svg"
   xmlns="http://www.w3.org/2000/svg"
   xmlns:sodipodi="http://sodipodi.sourceforge.net/DTD/sodipodi-0.dtd"
   xmlns:inkscape="http://www.inkscape.org/namespaces/inkscape"
   width="82.172028mm"
   height="82.172028mm"
   viewBox="0 0 82.172028 82.172028"
   version="1.1"
   id="svg8"
   inkscape:version="0.92.2 5c3e80d, 2017-08-06"
   sodipodi:docname="OA.svg"
   inkscape:export-filename="/Users/sebastian/Desktop/OA.png"
   inkscape:export-xdpi="96"
   inkscape:export-ydpi="96">
  <defs
     id="defs2" />
  <sodipodi:namedview
     id="base"
     pagecolor="#ffffff"
     bordercolor="#666666"
     borderopacity="1.0"
     inkscape:pageopacity="0.0"
     inkscape:pageshadow="2"
     inkscape:zoom="1.4908003"
     inkscape:cx="186.55828"
     inkscape:cy="185.26983"
     inkscape:document-units="mm"
     inkscape:current-layer="layer1"
     showgrid="false"
     inkscape:window-width="1440"
     inkscape:window-height="800"
     inkscape:window-x="0"
     inkscape:window-y="1"
     inkscape:window-maximized="1"
     fit-margin-top="0"
     fit-margin-left="0"
     fit-margin-right="0"
     fit-margin-bottom="0" />
  <metadata
     id="metadata5">
    <rdf:RDF>
      <cc:Work
         rdf:about="">
        <dc:format>image/svg+xml</dc:format>
        <dc:type
           rdf:resource="http://purl.org/dc/dcmitype/StillImage" />
        <dc:title></dc:title>
      </cc:Work>
    </rdf:RDF>
  </metadata>
  <g
     inkscape:label="Layer 1"
     inkscape:groupmode="layer"
     id="layer1"
     transform="translate(-24.681845,-63.14613)">
    <rect
       style="fill:#eeebbe;fill-opacity:1;stroke:#ffffff;stroke-width:0.5291667;stroke-miterlimit:4;stroke-dasharray:none;stroke-opacity:1"
       id="rect815"
       width="81.64286"
       height="81.64286"
       x="24.946428"
       y="63.410713" />
    <path
       style="fill:none;stroke:#8ba6a9;stroke-width:1.36488724;stroke-linecap:round;stroke-linejoin:miter;stroke-miterlimit:4;stroke-dasharray:none;stroke-opacity:1"
       d="m 34.972473,73.86059 v 64.65496"
       id="path1572"
       inkscape:connector-curvature="0"
       sodipodi:nodetypes="cc" />
    <path
       style="fill:none;stroke:#8ba6a9;stroke-width:1.32506669;stroke-linecap:round;stroke-linejoin:miter;stroke-miterlimit:4;stroke-dasharray:none;stroke-opacity:1"
       d="M 31.440919,135.21784 H 96.097143"
       id="path1574"
       inkscape:connector-curvature="0"
       sodipodi:nodetypes="cc" />
    <path
       style="fill:none;stroke:#75704e;stroke-width:0.79374999;stroke-linecap:butt;stroke-linejoin:miter;stroke-miterlimit:4;stroke-dasharray:none;stroke-opacity:0.99024389"
       d="m 45.012109,84.076372 6.274773,36.644678 6.776755,-22.84018 3.513873,11.0436 4.517836,-5.2708 3.262883,11.29459 5.270809,10.79261 9.286664,-2.50991 7.780718,3.51387"
       id="path1576"
       inkscape:connector-curvature="0"
       sodipodi:nodetypes="ccccccccc" />
    <circle
       style="fill:#76714e;fill-opacity:1;stroke:none;stroke-width:0.02407708;stroke-miterlimit:4;stroke-dasharray:none;stroke-opacity:1"
       id="path838"
       cx="44.886616"
       cy="84.452858"
       r="2.3844137" />
    <circle
       r="2.3844137"
       cy="120.09357"
       cx="51.161388"
       id="circle840"
       style="fill:#76714e;fill-opacity:1;stroke:none;stroke-width:0.02407708;stroke-miterlimit:4;stroke-dasharray:none;stroke-opacity:1" />
    <circle
       style="fill:#76714e;fill-opacity:1;stroke:none;stroke-width:0.02407708;stroke-miterlimit:4;stroke-dasharray:none;stroke-opacity:1"
       id="circle842"
       cx="57.687153"
       cy="98.006363"
       r="2.3844137" />
    <circle
       r="2.3844137"
       cy="108.79897"
       cx="60.950035"
       id="circle844"
       style="fill:#76714e;fill-opacity:1;stroke:none;stroke-width:0.02407708;stroke-miterlimit:4;stroke-dasharray:none;stroke-opacity:1" />
    <circle
       style="fill:#76714e;fill-opacity:1;stroke:none;stroke-width:0.02407708;stroke-miterlimit:4;stroke-dasharray:none;stroke-opacity:1"
       id="circle846"
       cx="65.969856"
       cy="103.27718"
       r="2.3844137" />
    <circle
       r="2.3844137"
       cy="114.57178"
       cx="68.730759"
       id="circle848"
       style="fill:#76714e;fill-opacity:1;stroke:none;stroke-width:0.02407708;stroke-miterlimit:4;stroke-dasharray:none;stroke-opacity:1" />
    <circle
       style="fill:#76714e;fill-opacity:1;stroke:none;stroke-width:0.02407708;stroke-miterlimit:4;stroke-dasharray:none;stroke-opacity:1"
       id="circle850"
       cx="75.507515"
       cy="126.11736"
       r="2.3844137" />
    <circle
       r="2.3844137"
       cy="123.10547"
       cx="83.539223"
       id="circle852"
       style="fill:#76714e;fill-opacity:1;stroke:none;stroke-width:0.02407708;stroke-miterlimit:4;stroke-dasharray:none;stroke-opacity:1" />
    <circle
       style="fill:#76714e;fill-opacity:1;stroke:none;stroke-width:0.02407708;stroke-miterlimit:4;stroke-dasharray:none;stroke-opacity:1"
       id="circle854"
       cx="92.072914"
       cy="127.37231"
       r="2.3844137" />
    <path
       style="fill:#8ba6a9;fill-opacity:1;stroke:#8ba6a9;stroke-width:0.26499999;stroke-linecap:round;stroke-linejoin:round;stroke-miterlimit:0.1;stroke-dasharray:none;stroke-opacity:1"
       d="m 96.027749,133.97549 c 0,0 4.248271,0.40974 4.245391,1.25824 -0.003,0.97101 -4.245391,1.22645 -4.245391,1.22645 z"
       id="path869"
       inkscape:connector-curvature="0"
       sodipodi:nodetypes="cscc" />
    <path
       sodipodi:nodetypes="cscc"
       inkscape:connector-curvature="0"
       id="path871"
       d="m 33.730128,73.447452 c 0,0 0.40974,-4.248271 1.25824,-4.245391 0.97101,0.003 1.22645,4.245391 1.22645,4.245391 z"
       style="fill:#8ba6a9;fill-opacity:1;stroke:#8ba6a9;stroke-width:0.26499999;stroke-linecap:round;stroke-linejoin:round;stroke-miterlimit:0.1;stroke-dasharray:none;stroke-opacity:1" />
  </g>
</svg>
